<svg version="1.1" id="Layer_1" xmlns="http://www.w3.org/2000/svg" xmlns:xlink="http://www.w3.org/1999/xlink" x="0px" y="0px"
	 viewBox="0 0 700 700" style="enable-background:new 0 0 700 700;" xml:space="preserve">
<style type="text/css">
	.st0{fill:#314456;}
	.st1{fill:#F27E21;}
	@media (prefers-color-scheme: dark){
	.st0{fill:#FFF;}
	}
</style>
<g id="fbefb7c8-7dc7-4f36-911f-5dc6542230a6">
	<path class="st0" d="M142.2,479.5c1.2,2,2.2,4.1,3,6.2l165.7-103.3c-11.4-13.4-14.9-31.9-9.1-48.6l-136.3-65.1
		c-25.9,58.8-22.2,126.4,9.9,182l-37.5,23.4C139.5,475.7,141,477.5,142.2,479.5z"/>
	<path class="st0" d="M557.7,220.5c-1.2-2-2.2-4.1-3-6.2l-37.4,23.3c-21.9-32.5-52.7-58-88.8-73.3c0,0.2,0,0.4-0.1,0.6
		c-3,10.2-12.6,16.9-23.1,16.2l-35.8,122.6c11.7,5.1,21,14.3,26.2,26L562,225.9C560.4,224.3,558.9,222.5,557.7,220.5z"/>
	<path class="st0" d="M100.4,350c0-33.9,6.9-67.5,20.3-98.7c0.4,0.2,0.8,0.6,1.3,0.8c8.6,4.1,19,1.8,25.1-5.6l159.4,77.2
		c4.5-7.3,10.7-13.3,18.2-17.6l-18.8-41.2c-11.3,1.5-21.7-6.5-23.2-17.9c-1.5-11.3,6.5-21.7,17.9-23.2s21.7,6.5,23.2,17.9
		c1,7.6-2.3,15.1-8.6,19.5l18.6,40.8c8.4-2.7,17.4-3.2,26-1.4l35.8-122.4c-9.3-5.1-13.7-16-10.8-26.1c0.1-0.2,0.2-0.4,0.2-0.6
		c-11.6-2.1-23.3-3.1-35.1-3.2c-74.6,0-139.6,40.6-174.4,100.8l-24.1-11.7c1.9-9.2-2.6-18.6-11.1-22.8
		C215,98.9,369.4,65.5,485.2,140.2c20.9,13.5,39.7,30.1,55.8,49.1c5.9-17.4,21.6-29.5,40-30.8C524,89.7,439.3,49.9,350,50
		C184.3,50,50,184.3,50,350c0,42.4,9,84.3,26.4,123c9.2-15.8,27.1-24.6,45.3-22.2C107.6,419.1,100.4,384.7,100.4,350z"/>
	<path class="st0" d="M623.6,226.9c-9.2,15.9-27,24.7-45.2,22.3c25.3,57.3,28.1,122,7.9,181.3c-8.2-2.9-17.4-0.4-23,6.4l-25.9-12.5
		c21.1-52.9,18.7-112.3-6.5-163.4l-131.6,82c0.4,2.3,0.5,4.7,0.5,7.1c0,0.1,0,0.2,0,0.3l61.9,1.1c2.8-11.2,14.2-17.9,25.4-15.1
		c11.2,2.8,17.9,14.2,15.1,25.4s-14.2,17.9-25.4,15.1c-7.6-2-13.5-8.1-15.2-15.8l-62.7-1.1c-0.5,2.5-1.2,5-2.1,7.5l162.2,78.5
		c-1.9,9.1,2.5,18.4,10.8,22.7c-65.5,121.3-216.9,166.6-338.2,101.1c-27.7-14.9-52.3-35-72.5-59.1c-5.9,17.4-21.6,29.6-39.9,30.9
		C176,610.3,260.7,650.1,350,650c165.7,0,300-134.3,300-300C650,307.6,641,265.6,623.6,226.9z"/>
	<path class="st0" d="M272.7,536.2c3.3-9.6,12.6-15.9,22.8-15.2l36.2-123.8c-3.7-1.4-7.3-3.2-10.5-5.4l-130.7,81.5
		C211.9,500.9,240.3,522.6,272.7,536.2z"/>
	<path class="st0" d="M350,551.6c75.4,0,144.5-42.1,179.1-109.1L392,377c-10.7,17.2-30.7,26.1-50.7,22.7l-36.3,124
		c8.9,4.9,13.3,15.1,11,25C327.2,550.6,338.6,551.6,350,551.6z"/>
	<path class="st1" d="M562,225.9c11.9,11.9,31.3,11.9,43.2,0c11.9-11.9,11.9-31.3,0-43.2c-11.9-11.9-31.3-11.9-43.2,0
		c-10.1,10.1-11.9,25.8-4.3,37.8C558.9,222.5,560.4,224.3,562,225.9z"/>
	<path class="st1" d="M137.9,474.1c-12.1-12.2-31.9-12.4-44.1-0.2C81.5,486,81.4,505.7,93.6,518c12.1,12.2,31.9,12.4,44.1,0.2
		c8.6-8.5,11.5-21.1,7.5-32.4c-0.8-2.2-1.8-4.3-3-6.2C141,477.5,139.5,475.7,137.9,474.1z"/>
</g>
</svg>
